[gd_resource type="DynamicFont" load_steps=2 format=2]

[ext_resource path="res://Assets/Fonts/Beyond Wonderland/Beyond Wonderland.ttf" type="DynamicFontData" id=1]

[resource]
size = 42
font_data = ExtResource( 1 )
