[gd_scene load_steps=2 format=2]

[ext_resource path="res://Assets/Fonts/Beyond Wonderland/new_dynamicfont.tres" type="DynamicFont" id=1]

[node name="ColorRect" type="ColorRect"]
margin_right = 384.0
margin_bottom = 216.0

[node name="Label" type="Label" parent="."]
margin_right = 40.0
margin_bottom = 14.0
custom_fonts/font = ExtResource( 1 )
custom_colors/font_color = Color( 0, 0, 0, 1 )
text = "You are awake
Living your daily life,
Hoping to never see
that forrest ever again"
