[gd_scene load_steps=2 format=2]

[ext_resource path="res://Assets/Music/rainforest_ambience-GlorySunz-1938133500.wav" type="AudioStream" id=1]

[node name="ForrestAmbient" type="Node2D"]

[node name="AudioStreamPlayer2D" type="AudioStreamPlayer2D" parent="."]
stream = ExtResource( 1 )
volume_db = -25.0
autoplay = true
