[gd_scene load_steps=4 format=2]

[ext_resource path="res://Scripts/Spikes.gd" type="Script" id=1]
[ext_resource path="res://Assets/platform_gfx/tiles/spikes1.png" type="Texture" id=2]

[sub_resource type="RectangleShape2D" id=1]
extents = Vector2( 16, 16 )

[node name="Spikes" type="Area2D"]
script = ExtResource( 1 )

[node name="CollisionShape2D" type="CollisionShape2D" parent="."]
shape = SubResource( 1 )

[node name="Sprite" type="Sprite" parent="."]
texture = ExtResource( 2 )
[connection signal="body_entered" from="." to="." method="_on_Spikes_body_entered"]
